123
503 709 605
265 615 389
351 923 830
206 52 219
115 344 35
516 724 944
196 551 426
62 95 861
669 141 644
474 148 146
183 752 411
149 141 113
71 322 670
137 169 926
870 344 874
417 247 299
160 499 833
980 300 154
83 62 302
223 174 724
896 196 197
787 332 366
65 983 257
286 679 130
702 277 781
292 29 153
446 1 132
745 506 566
807 160 789
332 883 36
879 80 823
53 172 575
535 225 203
667 107 523
310 488 675
755 488 158
851 345 723
9 504 863
341 387 899
721 133 614
959 29 18
482 603 904
58 157 570
164 679 879
651 353 985
490 510 836
844 338 447
536 76 345
107 893 417
239 506 727
267 524 208
221 427 265
377 349 780
407 579 431
399 106 203
594 444 1
130 871 345
113 826 621
839 444 496
398 16 275
662 392 623
442 798 553
224 908 116
143 879 866
249 433 812
44 434 941
914 130 880
29 243 705
650 81 500
497 479 515
771 492 258
745 285 407
298 508 314
765 3 192
631 251 624
442 646 409
539 613 940
941 213 168
437 43 34
560 535 291
656 171 697
362 718 681
283 528 141
928 289 226
838 129 607
858 69 171
377 858 214
410 769 100
52 424 270
748 377 948
109 446 980
13 145 614
893 180 862
731 6 51
211 964 908
632 135 284
489 700 45
257 799 96
32 68 843
408 368 303
205 347 667
701 313 910
689 205 90
550 287 447
763 211 129
249 846 969
225 98 985
256 165 179
16 532 833
572 231 851
273 895 761
313 99 202
863 386 1000
166 883 762
377 363 362
222 331 661
758 448 514
163 453 388
14 77 282
126 389 733
327 603 118
352 792 145
