set xlabel 'k: Cantidad procesos' font "Times-Roman,11"
set ylabel 'Tiempo [s]' font "Times-Roman,11"
set title 'Tiempo de ejecución v/s número de procesos' font "Times-Roman,11"
unset key
plot 'grafica.txt' with linespoints linecolor rgb "#FF0000"
